%YAML 1.1
%TAG !u! tag:unity3d.com,2011:
--- !u!1 &6110319434805361504
GameObject:
  m_ObjectHideFlags: 0
  m_CorrespondingSourceObject: {fileID: 0}
  m_PrefabInstance: {fileID: 0}
  m_PrefabAsset: {fileID: 0}
  serializedVersion: 6
  m_Component:
  - component: {fileID: 6110319434805361510}
  - component: {fileID: 6110319434805361505}
  m_Layer: 0
  m_Name: GameManager
  m_TagString: Untagged
  m_Icon: {fileID: 0}
  m_NavMeshLayer: 0
  m_StaticEditorFlags: 0
  m_IsActive: 1
--- !u!4 &6110319434805361510
Transform:
  m_ObjectHideFlags: 0
  m_CorrespondingSourceObject: {fileID: 0}
  m_PrefabInstance: {fileID: 0}
  m_PrefabAsset: {fileID: 0}
  m_GameObject: {fileID: 6110319434805361504}
  m_LocalRotation: {x: 0, y: 0, z: 0, w: 1}
  m_LocalPosition: {x: -16.682745, y: -7.3340774, z: 30.480755}
  m_LocalScale: {x: 1, y: 1, z: 1}
  m_Children: []
  m_Father: {fileID: 0}
  m_RootOrder: 0
  m_LocalEulerAnglesHint: {x: 0, y: 0, z: 0}
--- !u!114 &6110319434805361505
MonoBehaviour:
  m_ObjectHideFlags: 0
  m_CorrespondingSourceObject: {fileID: 0}
  m_PrefabInstance: {fileID: 0}
  m_PrefabAsset: {fileID: 0}
  m_GameObject: {fileID: 6110319434805361504}
  m_Enabled: 1
  m_EditorHideFlags: 0
  m_Script: {fileID: 11500000, guid: e33d25f200086264f87d945f57efe7b5, type: 3}
  m_Name: 
  m_EditorClassIdentifier: 
  bursts:
  - bombRate: 0.4
    bombSpeed: 3
    speed: 3
    bombCount: 5
    pointsPerBomb: 1
  - bombRate: 0.4
    bombSpeed: 3
    speed: 5
    bombCount: 10
    pointsPerBomb: 1
  - bombRate: 0.6
    bombSpeed: 4
    speed: 5
    bombCount: 15
    pointsPerBomb: 1
  - bombRate: 0.7
    bombSpeed: 4
    speed: 10
    bombCount: 20
    pointsPerBomb: 1
  - bombRate: 1
    bombSpeed: 5
    speed: 12
    bombCount: 30
    pointsPerBomb: 2
  - bombRate: 1.2
    bombSpeed: 5
    speed: 13
    bombCount: 50
    pointsPerBomb: 2
  - bombRate: 1.5
    bombSpeed: 6
    speed: 15
    bombCount: 100
    pointsPerBomb: 3
